
State Machine - |instradamento|main:y1|serialeParallelo:x1|currentState
Name currentState.pronto currentState.stop currentState.bit0 currentState.bit1 currentState.bit2 currentState.bit3 currentState.bit4 currentState.bit5 currentState.bit6 currentState.bit7 currentState.attesa 
currentState.attesa 0 0 0 0 0 0 0 0 0 0 0 
currentState.bit7 0 0 0 0 0 0 0 0 0 1 1 
currentState.bit6 0 0 0 0 0 0 0 0 1 0 1 
currentState.bit5 0 0 0 0 0 0 0 1 0 0 1 
currentState.bit4 0 0 0 0 0 0 1 0 0 0 1 
currentState.bit3 0 0 0 0 0 1 0 0 0 0 1 
currentState.bit2 0 0 0 0 1 0 0 0 0 0 1 
currentState.bit1 0 0 0 1 0 0 0 0 0 0 1 
currentState.bit0 0 0 1 0 0 0 0 0 0 0 1 
currentState.stop 0 1 0 0 0 0 0 0 0 0 1 
currentState.pronto 1 0 0 0 0 0 0 0 0 0 1 
